1688072065.85726	3.94653	3.23300	-1.90561	0.00009	0.00039
1688072066.00130	3.94653	3.23300	-1.90561	0.00009	0.00039
1688072066.16111	3.94653	3.23300	-1.90561	0.00009	0.00039
1688072066.30524	3.94653	3.23300	-1.90561	0.00009	0.00039
1688072066.44918	3.94653	3.23300	-1.90561	0.00009	0.00039
1688072066.60910	3.94653	3.23300	-1.90561	0.00009	0.00039
1688072066.75315	3.94653	3.23300	-1.90561	0.00009	0.00039
1688072066.89712	3.94653	3.23300	-1.90561	0.00009	0.00039
1688072067.05696	3.94653	3.23300	-1.90561	0.00009	0.00039
1688072067.20064	3.94653	3.23300	-1.90561	0.00009	0.00039
1688072067.36112	3.94653	3.23300	-1.90561	0.00009	0.00039
1688072067.50479	3.94653	3.23300	-1.90561	0.00009	0.00039
1688072067.64905	3.94653	3.23300	-1.90561	0.00009	0.00039
1688072067.80895	3.94653	3.23300	-1.90561	0.00009	0.00039
1688072067.95298	3.94653	3.23300	-1.90561	0.00009	0.00039
1688072068.09693	3.94653	3.23300	-1.90561	0.00009	0.00039
1688072068.25691	3.94653	3.23300	-1.90561	0.00009	0.00039
1688072068.40090	3.94653	3.23300	-1.90561	0.00009	0.00039
1688072068.56087	3.94653	3.23300	-1.90561	0.00009	0.00039
1688072068.70489	3.94653	3.23300	-1.90561	0.00009	0.00039
1688072068.84887	3.94653	3.23300	-1.90561	0.00009	0.00039
1688072069.00870	3.94653	3.23300	-1.90561	0.00009	0.00039
1688072069.15281	3.94653	3.23300	-1.90561	0.00009	0.00039
1688072069.29678	3.94653	3.23300	-1.90561	0.00009	0.00039
1688072069.45652	3.94653	3.23300	-1.90561	0.00009	0.00039
1688072069.60074	3.94653	3.23300	-1.90561	0.00009	0.00039
1688072069.76058	3.94653	3.23300	-1.90561	0.00009	0.00039
1688072069.90464	3.94653	3.23300	-1.90561	0.00009	0.00039
1688072070.04841	3.94653	3.23300	-1.90561	0.00009	0.00039
1688072070.20817	3.94653	3.23300	-1.90561	0.00009	0.00039
1688072070.35233	3.94653	3.23300	-1.90561	0.00009	0.00039
1688072070.49655	3.94653	3.23300	-1.90561	0.00009	0.00039
1688072070.65645	3.94653	3.23300	-1.90561	0.00009	0.00039
1688072070.80054	3.94653	3.23300	-1.90561	0.00009	0.00039
1688072070.96041	3.94653	3.23300	-1.90561	0.00009	0.00039
1688072071.10430	3.94653	3.23300	-1.90561	0.00009	0.00039
1688072071.24830	3.94653	3.23300	-1.90561	0.00009	0.00039
1688072071.40835	3.94653	3.23300	-1.90561	0.00009	0.00039
1688072071.55239	3.94653	3.23300	-1.90561	0.00009	0.00039
1688072071.69648	3.94653	3.23300	-1.90561	0.00009	0.00039
1688072071.88823	3.94653	3.23300	-1.90561	0.00009	0.00039
1688072072.03217	3.94653	3.23300	-1.90561	0.00009	0.00039
1688072072.17631	3.94653	3.23300	-1.90561	0.00009	0.00039
1688072072.33620	3.94653	3.23300	-1.90561	0.00009	0.00039
1688072072.48030	3.94653	3.23300	-1.90561	0.00429	-0.01970
1688072072.65582	3.94630	3.23233	-1.90669	0.01423	-0.06489
1688072072.84822	3.94559	3.23034	-1.91632	0.02296	-0.24284
1688072073.02416	3.94441	3.22725	-1.94417	0.02061	-0.40453
1688072073.16814	3.94311	3.22423	-1.99986	-0.01237	-0.44276
1688072073.32813	3.94357	3.22505	-2.07697	-0.00391	-0.11224
1688072073.50396	3.94392	3.22566	-2.10803	-0.00064	-0.05439
1688072073.64770	3.94404	3.22586	-2.11767	0.00070	-0.04830
1688072073.80804	3.94417	3.22606	-2.12088	-0.00096	-0.04073
1688072073.98370	3.94392	3.22566	-2.12302	0.00508	-0.02986
1688072074.15999	3.94355	3.22506	-2.12838	-0.00095	-0.12549
1688072074.33546	3.94342	3.22486	-2.14444	0.00428	-0.13005
1688072074.49590	3.94329	3.22467	-2.16479	0.00160	-0.21688
1688072074.63949	3.94302	3.22428	-2.19906	0.00242	-0.24201
1688072074.81580	3.94274	3.22390	-2.23333	0.00121	-0.18031
1688072074.97530	3.94244	3.22354	-2.26332	-0.00182	-0.10943
1688072075.11946	3.94290	3.22408	-2.28153	-0.00577	-0.07576
1688072075.27974	3.94352	3.22479	-2.29438	-0.00101	-0.17902
1688072075.45567	3.94383	3.22514	-2.31366	-0.00853	-0.28094
1688072075.59958	3.94449	3.22581	-2.35435	0.00682	-0.28366
1688072075.75937	3.94448	3.22582	-2.39933	0.01053	-0.32914
1688072075.90358	3.94341	3.22489	-2.44432	-0.00041	-0.38483
1688072076.04759	3.94249	3.22417	-2.50108	0.00351	-0.30035
1688072076.20725	3.94249	3.22417	-2.36284	-0.00218	-0.25884
1688072076.35154	3.94268	3.22429	-2.40247	-0.00730	-0.28848
1688072076.49543	3.94330	3.22465	-2.63602	0.00437	-0.20337
1688072076.65526	3.94329	3.22465	-2.67243	0.00420	-0.29484
1688072076.79934	3.94244	3.22425	-2.71313	0.00328	-0.34358
1688072076.95924	3.94244	3.22424	-2.78382	-0.00365	-0.39522
1688072077.13524	3.94245	3.22424	-2.84165	-0.00955	-0.34799
1688072077.27905	3.94336	3.22448	-2.89520	0.00048	-0.30213
1688072077.43900	3.94336	3.22448	-2.89520	0.00937	-0.33092
1688072077.58310	3.94242	3.22434	-2.98944	0.00414	-0.28078
1688072077.72735	3.94149	3.22423	-3.03442	-0.00177	-0.31477
1688072077.88720	3.94149	3.22423	-3.07940	-0.00650	-0.32220
1688072078.03118	3.94267	3.22426	-3.12974	-0.00428	-0.32726
1688072078.17529	3.94384	3.22424	3.10739	-0.00270	-0.35413
1688072078.33481	3.94384	3.22424	3.05599	0.00790	-0.34398
1688072078.47923	3.94361	3.22428	3.00351	0.00542	-0.32279
1688072078.63879	3.94361	3.22428	3.00351	-0.01217	-0.35107
1688072078.78270	3.94291	3.22436	2.90177	-0.00310	-0.24247
1688072078.92668	3.94359	3.22418	2.86428	0.00416	-0.30002
1688072079.08663	3.94359	3.22418	2.82144	0.00379	-0.32576
1688072079.23107	3.94293	3.22442	2.77325	0.00743	-0.41453
1688072079.37505	3.94162	3.22497	2.71542	0.00292	-0.38203
1688072079.53504	3.94120	3.22518	2.65544	-0.00893	-0.31545
1688072079.67852	3.94242	3.22447	2.60618	-0.00417	-0.34690
1688072079.83856	3.94242	3.22447	2.60618	0.00452	-0.26731
1688072079.98296	3.94283	3.22423	2.50979	0.00465	-0.27111
1688072080.12693	3.94209	3.22481	2.47123	0.00455	-0.33972
1688072080.28649	3.94137	3.22542	2.42197	-0.00718	-0.32613
1688072080.43060	3.94188	3.22493	2.37163	-0.00493	-0.34285
1688072080.57485	3.94270	3.22409	2.31915	0.00196	-0.32782
1688072080.73470	3.94255	3.22427	2.26882	0.00056	-0.31287
1688072080.87847	3.94255	3.22427	2.22598	0.00713	-0.35132
1688072081.03834	3.94229	3.22466	2.17457	-0.00390	-0.28606
1688072081.18254	3.94216	3.22485	2.12852	-0.00616	-0.27762
1688072081.32628	3.94286	3.22363	2.08568	0.00047	-0.32337
1688072081.48668	3.94331	3.22280	2.03856	-0.00017	-0.31786
1688072081.63065	3.94301	3.22344	1.99036	0.00128	-0.36906
1688072081.79049	3.94318	3.22300	1.93467	-0.00131	-0.39965
1688072081.93443	3.94318	3.22300	1.87684	-0.00810	-0.32737
1688072082.07861	3.94331	3.22255	1.82543	-0.00751	-0.30650
1688072082.23842	3.94357	3.22140	1.77724	0.00945	-0.24726
1688072082.38253	3.94345	3.22210	1.73976	0.01160	-0.32334
1688072082.52625	3.94322	3.22373	1.69156	0.00253	-0.37610
1688072082.68659	3.94308	3.22537	1.62623	-0.00260	-0.41009
1688072082.86253	3.94308	3.22514	1.55448	-0.00614	-0.34364
1688072083.03839	3.94302	3.22396	1.49986	0.00627	-0.37406
1688072083.19792	3.94305	3.22419	1.44524	0.00303	-0.34054
1688072083.34201	3.94316	3.22489	1.38205	0.00056	-0.38622
1688072083.51834	3.94316	3.22489	1.32636	-0.00529	-0.39089
1688072083.67833	3.94308	3.22467	1.26746	0.00200	-0.43712
1688072083.82215	3.94309	3.22467	1.20534	0.00774	-0.40540
1688072083.96631	3.94357	3.22574	1.13358	0.00635	-0.43456
1688072084.15821	3.94378	3.22616	1.06933	-0.00929	-0.37223
1688072084.30186	3.94341	3.22556	1.00614	0.00050	-0.40806
1688072084.44591	3.94315	3.22517	0.94402	0.00502	-0.43089
1688072084.60576	3.94390	3.22607	0.85941	0.00180	-0.46830
1688072084.78211	3.94406	3.22625	0.78766	-0.00729	-0.44716
1688072084.92595	3.94284	3.22514	0.71804	0.00528	-0.40984
1688072085.08555	3.94247	3.22484	0.64950	0.01285	-0.44720
1688072085.22983	3.94383	3.22578	0.57346	0.00011	-0.46141
1688072085.40551	3.94403	3.22590	0.50385	-0.01357	-0.48358
1688072085.56554	3.94234	3.22507	0.43102	0.00448	-0.43943
1688072085.70983	3.94213	3.22496	0.34856	0.00944	-0.51906
1688072085.88588	3.94303	3.22526	0.27145	-0.00728	-0.49284
1688072086.04547	3.94187	3.22501	0.18256	0.00253	-0.52293
1688072086.22183	3.94188	3.22500	0.10759	0.00827	-0.56816
1688072086.36588	3.94235	3.22502	0.02191	-0.01379	-0.58391
1688072086.52578	3.94164	3.22506	-0.06270	-0.00350	-0.47779
1688072086.66958	3.94024	3.22521	-0.13767	0.00332	-0.51347
1688072086.82919	3.94070	3.22512	-0.21263	-0.00040	-0.61243
1688072086.97364	3.94092	3.22506	-0.29938	-0.00590	-0.50706
1688072087.11768	3.94026	3.22531	-0.37971	0.00099	-0.50364
1688072087.27767	3.94069	3.22510	-0.45682	0.00030	-0.51028
1688072087.42164	3.94131	3.22476	-0.53286	0.00183	-0.56001
1688072087.56561	3.94111	3.22489	-0.61746	-0.00150	-0.57198
1688072087.72540	3.94073	3.22518	-0.70314	-0.00107	-0.60144
1688072087.86955	3.94090	3.22501	-0.78775	-0.00392	-0.49687
1688072088.02936	3.94090	3.22501	-0.86914	-0.00552	-0.51376
1688072088.17348	3.94075	3.22519	-0.94518	0.00914	-0.52110
1688072088.31749	3.94139	3.22420	-1.02122	-0.00432	-0.53983
1688072088.47738	3.94139	3.22420	-1.10476	-0.00938	-0.54653
1688072088.62142	3.94111	3.22485	-1.18722	0.00651	-0.48050
1688072088.76540	3.94125	3.22440	-1.25791	0.00616	-0.51926
1688072088.92529	3.94150	3.22349	-1.33716	-0.00975	-0.60321
1688072089.06926	3.94141	3.22395	-1.42284	0.00268	-0.51311
1688072089.22923	3.94138	3.22419	-1.50316	0.00236	-0.52844
1688072089.37328	3.94139	3.22325	-1.58241	0.00147	-0.53502
1688072089.51728	3.94140	3.22324	-1.65952	-0.00788	-0.53555
1688072089.67678	3.94157	3.22441	-1.73985	-0.00475	-0.56631
1688072089.82114	3.94161	3.22464	-1.82231	-0.00092	-0.54960
1688072089.96520	3.94176	3.22509	-1.90370	-0.00316	-0.47739
1688072090.12519	3.94210	3.22597	-1.98082	0.00511	-0.46942
1688072090.26899	3.94179	3.22533	-2.05043	0.00371	-0.56277
1688072090.42914	3.94143	3.22473	-2.12861	-0.01848	-0.59651
1688072090.57313	3.94185	3.22530	-2.21536	0.00195	-0.57673
1688072090.71704	3.94229	3.22585	-2.29782	0.00256	-0.49783
1688072090.87686	3.94212	3.22568	-2.36958	-0.00414	-0.58118
1688072091.02092	3.94231	3.22583	-2.45419	-0.00327	-0.59213
1688072091.16478	3.94288	3.22624	-2.54094	0.00343	-0.52352
1688072091.32452	3.94227	3.22588	-2.63411	0.00311	-0.38039
1688072091.50097	3.94249	3.22598	-2.72086	0.00401	-0.06265
1688072091.67658	3.94270	3.22607	-2.73478	-0.00117	-0.03908
1688072091.83686	3.94205	3.22579	-2.73800	-0.00131	-0.03849
1688072091.98083	3.94162	3.22561	-2.74014	0.00134	-0.01165
1688072092.12466	3.94184	3.22570	-2.74335	-0.00268	-0.02990
1688072092.28449	3.94205	3.22579	-2.74442	-0.00107	-0.00488
1688072092.42875	3.94227	3.22588	-2.74549	-0.00368	-0.01673
1688072092.58876	3.94271	3.22606	-2.74763	-0.00412	-0.01874
1688072092.73265	3.94314	3.22624	-2.74978	-0.00412	-0.01874
1688072092.87664	3.94314	3.22624	-2.74978	-0.00412	-0.01874
1688072093.03664	3.94314	3.22624	-2.74978	-0.00412	-0.01874
1688072093.18032	3.94314	3.22624	-2.74978	-0.00412	-0.01874
1688072093.32453	3.94314	3.22624	-2.74978	-0.00412	-0.01874
1688072093.48391	3.94336	3.22633	-2.75085	-0.00029	-0.00133
1688072093.62853	3.94336	3.22633	-2.75085	-0.00029	-0.00133
